SERVER 3 13 1
SERVER 1 3 66
SERVER 66 1 27
SERVER 27 66 6
SERVER 6 27 2
SERVER 2 6 15
SERVER 15 2 30
SERVER 30 15 4
SERVER 4 30 19
SERVER 19 4 5
SERVER 5 19 8
SERVER 8 5 34
SERVER 34 8 7
SERVER 7 34 52
SERVER 52 7 9
SERVER 9 52 21
SERVER 21 9 32
SERVER 32 21 14
SERVER 14 32 12
SERVER 12 14 16
SERVER 16 12 41
SERVER 41 16 42
SERVER 42 41 11
SERVER 11 42 65
SERVER 65 11 25
SERVER 25 65 17
SERVER 17 25 33
SERVER 33 17 24
SERVER 24 33 13
SERVER 13 24 3
START_LEADER_ELECTION
UPLOAD 20 9
UPLOAD 26 23
UPLOAD 20 21
UPLOAD 20 13
UPLOAD 10 5
UPLOAD 20 2
UPLOAD 10 7
UPLOAD 20 10
UPLOAD 10 4
UPLOAD 18 25
UPLOAD 23 7
UPLOAD 10 1
UPLOAD 10 2
UPLOAD 10 3
UPLOAD 20 8
UPLOAD 20 14
UPLOAD 18 22
UPLOAD 20 11
UPLOAD 18 14
UPLOAD 26 51
UPLOAD 10 6
UPLOAD 22 1
UPLOAD 20 13
UPLOAD 20 12
UPLOAD 18 15
RETRIEVE 28 22
RETRIEVE 29 14
UPDATE 20 14
RETRIEVE 29 1
UPDATE 29 1
UPLOAD 29 32
RETRIEVE 31 12
RETRIEVE 35 12
UPDATE 35 12
UPDATE 31 12
UPLOAD 35 7
RETRIEVE 59 14
RETRIEVE 35 22
UPLOAD 39 16
RETRIEVE 53 11
UPDATE 59 14
UPDATE 35 22
UPDATE 53 11
UPLOAD 53 17
RETRIEVE 35 15
UPDATE 35 15
RETRIEVE 51 15
RETRIEVE 39 15
UPDATE 39 15
UPDATE 51 15
UPDATE 49 1
UPLOAD 43 57
UPLOAD 43 56
RETRIEVE 44 15
RETRIEVE 38 0
RETRIEVE 61 8
UPDATE 44 15
UPDATE 44 15
UPDATE 61 8
UPDATE 44 8
UPLOAD 45 233
UPLOAD 35 52
RETRIEVE 39 2
RETRIEVE 56 17
RETRIEVE 57 23
UPDATE 56 17
UPLOAD 56 288
UPDATE 57 23
RETRIEVE 44 10
RETRIEVE 36 7
RETRIEVE 45 2
RETRIEVE 40 51
UPDATE 45 2
UPLOAD 39 6
RETRIEVE 39 6
UPDATE 39 6
UPDATE 39 6
UPDATE 53 12
RETRIEVE 36 13
UPLOAD 45 27
RETRIEVE 58 11
UPDATE 53 67
RETRIEVE 53 6
RETRIEVE 53 16
UPDATE 53 16
RETRIEVE 58 13
RETRIEVE 36 8
UPDATE 36 8
UPDATE 53 6
RETRIEVE 64 15
RETRIEVE 40 22
UPDATE 64 15
UPDATE 20 8
RETRIEVE 45 3
RETRIEVE 43 16
UPDATE 43 16
RETRIEVE 68 7
RETRIEVE 39 11
RETRIEVE 35 21
UPDATE 39 11
UPDATE 68 7
UPDATE 35 21
UPDATE 68 33
RETRIEVE 40 11
UPDATE 40 11
RETRIEVE 49 25
RETRIEVE 37 8
UPDATE 49 25
UPLOAD 36 24
RETRIEVE 35 11
RETRIEVE 63 20
RETRIEVE 38 12
UPDATE 38 12
UPDATE 35 11
RETRIEVE 36 23
RETRIEVE 38 25
UPDATE 50 23
RETRIEVE 50 23
RETRIEVE 35 15
UPDATE 50 23
RETRIEVE 53 25
UPDATE 53 25
RETRIEVE 62 5
RETRIEVE 69 5
RETRIEVE 39 12
UPDATE 62 5
RETRIEVE 37 21
UPDATE 69 5
RETRIEVE 54 12
UPDATE 54 12
RETRIEVE 55 3
UPDATE 55 3
RETRIEVE 43 26
UPDATE 43 26
RETRIEVE 47 8
RETRIEVE 36 2
UPLOAD 50 111
UPDATE 47 8
UPDATE 36 2
RETRIEVE 46 27
RETRIEVE 67 9
UPLOAD 68 33
RETRIEVE 37 55
RETRIEVE 46 7
RETRIEVE 60 7
RETRIEVE 48 57
RETRIEVE 38 14
UPDATE 46 27
RETRIEVE 37 14
RETRIEVE 46 11
UPDATE 46 11
RETRIEVE 35 13
RETRIEVE 39 25
RETRIEVE 36 9
UPDATE 37 14
UPDATE 46 2
RETRIEVE 36 14
UPDATE 36 14
RETRIEVE 37 11
UPLOAD 62 55
UPDATE 46 11
UPDATE 37 11
UPDATE 55 3
UPDATE 43 26